{
  "houses": [
    {
      "id": 1,
      "address": "new address",
      "description": "bootyful house",
      "listingPrice": 234000,
      "availableDate": "2019-8-18",
      "numberOfBedrooms": 4,
      "numberOfBathrooms": 3.5,
      "contactPhone": 4237777777,
      "imageUrl": "./assets/images/house1.jpeg",
      "rating": 4.5,
      "likes": 8
    },
    {
      "id": "1234",
      "address": "901 Fitzpatrick Dr. LaFayette, GA 30728",
      "description": "Banch",
      "listingPrice": 9001,
      "availableDate": "1997-02-06T05:00:00.000Z",
      "numberOfBedrooms": 3,
      "numberOfBathrooms": 1,
      "contactPhone": "4237040000",
      "imageUrl": "./assets/images/house4.jpeg",
      "rating": 3.7,
      "likes": 1
    },
    {
      "id": "4321",
      "address": "1901 Maple St. Carrollton, GA, 30118",
      "description": "Banch",
      "listingPrice": 9001,
      "availableDate": "1997-02-06T05:00:00.000Z",
      "numberOfBedrooms": 3,
      "numberOfBathrooms": 1,
      "contactPhone": "4237040000",
      "imageUrl": "./assets/images/house4.jpeg",
      "rating": 3.7,
      "likes": 0
    },
    {
      "id": "123456",
      "address": "1901 Maple St. Carrollton, GA, 30118",
      "description": "Banch",
      "listingPrice": 9001,
      "availableDate": "1997-02-06T05:00:00.000Z",
      "numberOfBedrooms": 3,
      "numberOfBathrooms": 1,
      "contactPhone": "4237040000",
      "imageUrl": "./assets/images/house4.jpeg",
      "rating": 3.7,
      "likes": 0
    }
  ]
}